{
    "title" : "explain.depesz.com",

    "secret" : "|Erp--Wjgb)+eiB/|H=|V7!#+M|L{a8=J2|pd+N1=M|&pJWq|M&,f3q^XS",

    "database" : {
        "dsn"      : "dbi:Pg:database=depesz_explain;host=127.0.0.1;port=5140",
        "username" : "depesz_explain",
        "options"  : {
            "auto_commit" : 1,
            "pg_server_prepare" : 0,
            "RaiseError" : 1,
            "PrintError" : 0
        }
    },

    "mail_sender" : {
        "from"    : "depesz_explain.depesz.com <depesz@depesz.com>",
        "to"      : "depesz <depesz@depesz.com>",
        "subject" : "Message from: depesz_explain.depesz.com/contact"
    },

    "hypnotoad"   : {
        "listen"  : ["http://*:12004"],
        "workers" : 2,
        "pid_file" : "/var/run/depesz_explain.depesz.com.pid"
    }
}
